{"data":[{"_id":"5fdc84bb8d7ec73efc369482","id":1429,"author_id":9,"slug":130,"title":"Id cum eum iure.","description":"Voluptate unde qui voluptate dolores dolores dolorum in. Magnam ea doloribus eaque nesciunt. Consequatur minima iure quo assumenda iusto neque eaque.","content":"Minus quam sunt reprehenderit non eaque ducimus quas quisquam. Accusantium excepturi quidem recusandae. Aut quia soluta et. Consequatur voluptatem non veritatis cupiditate maiores corrupti.","published_at":["__date__",992797200000],"image":"http://lorempixel.com/1400/700/","time_read":13,"author":"5fdc8413c399571d6c5b9d35","tags":["5fdc3b553f4b1933e07df416","5fdc3b553f4b1933e07df401"],"categories":["5fdc3ae4c58d1e3588879c9a"],"cover":"https://picsum.photos/1400/700"},{"_id":"5fdc84bb8d7ec73efc369483","id":1431,"author_id":11,"slug":99238,"title":"Vel quaerat rem excepturi ratione id.","description":"Rerum sed voluptas quasi ratione. Id veniam ad et nam. Alias omnis reiciendis doloribus et voluptatem natus. Tenetur error assumenda totam accusantium et. Qui neque minus possimus praesentium sapiente voluptatum.","content":"Dolor vel saepe dicta ut accusamus. Necessitatibus cupiditate ullam vitae. Id perspiciatis mollitia quia porro in et.","published_at":["__date__",1248454800000],"image":"http://lorempixel.com/1400/700/","time_read":10,"author":"5fdc8413c399571d6c5b9d44","tags":["5fdc3b553f4b1933e07df42c"],"categories":["5fdc3ae4c58d1e3588879ca0"],"cover":"https://picsum.photos/1400/700"},{"_id":"5fdc84bb8d7ec73efc369484","id":1437,"author_id":17,"slug":408,"title":"Corrupti natus saepe esse nisi architecto neque.","description":"Totam velit repellendus est nulla atque qui laboriosam et. Distinctio unde quibusdam nostrum consequatur quam veritatis asperiores. Quaerat et et sint beatae reprehenderit.","content":"Inventore et aliquam voluptatibus cumque nihil. Sed ipsa id consequuntur exercitationem. Aut in accusamus incidunt unde.","published_at":["__date__",1560445200000],"image":"http://lorempixel.com/1400/700/","time_read":12,"author":"5fdc8413c399571d6c5b9d3e","tags":["5fdc3b553f4b1933e07df417","5fdc3b553f4b1933e07df419"],"categories":["5fdc3ae4c58d1e3588879ca1"],"cover":"https://picsum.photos/1400/700"},{"_id":"5fdc84bb8d7ec73efc369485","id":1438,"author_id":18,"slug":856,"title":"Ut ut ut ab blanditiis nostrum soluta.","description":"Accusamus vero amet officia dolorem est. Quas voluptas praesentium omnis ea. Exercitationem libero cumque temporibus aperiam minus aut dolor. Voluptatem esse assumenda pariatur tempora ipsam in sed. Tenetur eveniet voluptas omnis tenetur eos dolor culpa.","content":"Minus quibusdam deserunt fugiat blanditiis quam. Quia ipsum dolor quia animi. Saepe eveniet rerum quo alias suscipit similique et.","published_at":["__date__",1365094800000],"image":"http://lorempixel.com/1400/700/","time_read":10,"author":"5fdc8413c399571d6c5b9d46","tags":["5fdc3b553f4b1933e07df437","5fdc3b553f4b1933e07df414"],"categories":["5fdc3ae4c58d1e3588879ca7"],"cover":"https://picsum.photos/1400/700"},{"_id":"5fdc84bb8d7ec73efc369486","id":1442,"author_id":2,"slug":31371,"title":"Corrupti quia assumenda esse consequatur ea.","description":"Aspernatur ex sed a enim rerum. Itaque sunt pariatur rerum a sed beatae.","content":"Maiores eos perspiciatis omnis. Et maiores repudiandae ut blanditiis magnam est repudiandae. Tenetur est necessitatibus eaque iste.","published_at":["__date__",940611600000],"image":"http://lorempixel.com/1400/700/","time_read":11,"author":"5fdc8413c399571d6c5b9d39","tags":["5fdc3b553f4b1933e07df3f8","5fdc3b553f4b1933e07df433"],"categories":["5fdc3ae4c58d1e3588879c9e"],"cover":"https://picsum.photos/1400/700"},{"_id":"5fdc84bb8d7ec73efc369487","id":1447,"author_id":7,"slug":18,"title":"Ea repudiandae nihil ut.","description":"Similique deleniti aut praesentium rerum cupiditate. Illo soluta iusto rerum. Officiis nisi quia quos non ut quidem.","content":"Voluptatum provident consequuntur consectetur nihil quo impedit qui. Eum ut eius aliquid aspernatur natus. Eligendi delectus id totam voluptatum blanditiis.","published_at":["__date__",804790800000],"image":"http://lorempixel.com/1400/700/","time_read":11,"author":"5fdc8413c399571d6c5b9d3e","tags":["5fdc3b553f4b1933e07df403","5fdc3b553f4b1933e07df431"],"categories":["5fdc3ae4c58d1e3588879c9f"],"cover":"https://picsum.photos/1400/700"},{"_id":"5fdc84bb8d7ec73efc369488","id":1448,"author_id":8,"slug":5506501,"title":"Quis eligendi quae placeat.","description":"Tempora placeat aut quia atque aut. Est aut sit natus facilis natus ut. Dolore qui incidunt veritatis sit.","content":"Et voluptas dolorem repellendus in praesentium occaecati. Explicabo quo at sint atque molestiae architecto et consequatur. Et atque qui placeat nobis enim eaque.","published_at":["__date__",761590800000],"image":"http://lorempixel.com/1400/700/","time_read":12,"author":"5fdc8413c399571d6c5b9d36","tags":["5fdc3b553f4b1933e07df434","5fdc3b553f4b1933e07df42c"],"categories":["5fdc3ae4c58d1e3588879c98"],"cover":"https://picsum.photos/1400/700"},{"_id":"5fdc84bb8d7ec73efc369489","id":1453,"author_id":13,"slug":43,"title":"Voluptatum exercitationem perferendis corporis soluta et dolores praesentium.","description":"Cum veritatis delectus id quas porro minus cupiditate. Eaque possimus doloribus nemo sed ipsam laborum. Ea corporis quidem ut molestiae sequi hic.","content":"Porro natus ratione omnis in facilis sit suscipit. Soluta aut nihil aspernatur nostrum.","published_at":["__date__",1348333200000],"image":"http://lorempixel.com/1400/700/","time_read":12,"author":"5fdc8413c399571d6c5b9d36","tags":["5fdc3b553f4b1933e07df421","5fdc3b553f4b1933e07df418"],"categories":["5fdc3ae4c58d1e3588879ca7"],"cover":"https://picsum.photos/1400/700"},{"_id":"5fdc84bb8d7ec73efc36948a","id":1454,"author_id":14,"slug":39,"title":"Minima sed magnam tempore.","description":"Ea maxime quia fuga deleniti molestiae assumenda. Esse doloremque inventore nihil at quia occaecati. Eum velit est praesentium voluptatum dolorum distinctio. Est aut in assumenda quisquam ullam consequatur molestiae nihil. Aliquid voluptatibus et et occaecati sint vel omnis.","content":"Aut consequatur exercitationem inventore expedita. Id accusamus quia id quasi corrupti.","published_at":["__date__",269715600000],"image":"http://lorempixel.com/1400/700/","time_read":14,"author":"5fdc8413c399571d6c5b9d41","tags":["5fdc3b553f4b1933e07df3e4","5fdc3b553f4b1933e07df42f"],"categories":["5fdc3ae4c58d1e3588879ca4"],"cover":"https://picsum.photos/1400/700"},{"_id":"5fdc84bb8d7ec73efc36948b","id":1459,"author_id":19,"slug":2705723,"title":"Eius aut ad occaecati aliquam reiciendis.","description":"Suscipit velit dicta ut velit. Quia deserunt veniam aliquam in reprehenderit. Iure culpa qui quia at et reprehenderit.","content":"Esse ab enim iure. Aut est laborum veritatis inventore vitae vel. Aut sit repellendus aut quae.","published_at":["__date__",117478800000],"image":"http://lorempixel.com/1400/700/","time_read":10,"author":"5fdc8413c399571d6c5b9d43","tags":["5fdc3b553f4b1933e07df3fc","5fdc3b553f4b1933e07df433"],"categories":["5fdc3ae4c58d1e3588879ca9"],"cover":"https://picsum.photos/1400/700"},{"_id":"5fdc84bb8d7ec73efc36948c","id":1465,"author_id":5,"slug":3443,"title":"Aut illo quidem doloribus consequatur voluptatem.","description":"Voluptatem perferendis assumenda officiis molestiae accusantium earum. Quidem quo omnis vero quis nam repellat. Tenetur accusamus odit nemo neque tenetur.","content":"Aut aperiam veritatis eaque suscipit doloribus. Deserunt quia quasi beatae vitae voluptatem blanditiis. Hic ad placeat vel.","published_at":["__date__",295981200000],"image":"http://lorempixel.com/1400/700/","time_read":12,"author":"5fdc8413c399571d6c5b9d3e","tags":["5fdc3b553f4b1933e07df3fc","5fdc3b553f4b1933e07df413"],"categories":["5fdc3ae4c58d1e3588879c9e"],"cover":"https://picsum.photos/1400/700"},{"_id":"5fdc84bb8d7ec73efc36948d","id":1466,"author_id":6,"slug":5501473,"title":"Commodi assumenda deleniti aut facere quia facere.","description":"Nobis est est et non ad. Ipsam in esse dignissimos doloribus et quos quae. Quam velit corrupti porro et nam voluptatem. Doloremque doloribus eligendi quia autem et corrupti earum.","content":"Necessitatibus dolorem perferendis consectetur error eum. Sunt labore distinctio iste perspiciatis debitis.","published_at":["__date__",1161190800000],"image":"http://lorempixel.com/1400/700/","time_read":15,"author":"5fdc8413c399571d6c5b9d3f","tags":["5fdc3b553f4b1933e07df40d","5fdc3b553f4b1933e07df3f3"],"categories":["5fdc3ae4c58d1e3588879c9f"],"cover":"https://picsum.photos/1400/700"},{"_id":"5fdc84bb8d7ec73efc36948e","id":1469,"author_id":9,"slug":6145651,"title":"Minus voluptas sit vitae.","description":"Quae accusantium sit ratione dolor tempora. At tempore ex recusandae nam sed. Modi voluptatum omnis dolorem. Ut eum quia adipisci optio est voluptatem.","content":"Quisquam non facilis eum numquam nobis sed blanditiis. Quos aliquid eligendi quos necessitatibus odio. Distinctio dignissimos ut velit eaque eligendi et. Eum eum sit repellat hic quas ipsa.","published_at":["__date__",121539600000],"image":"http://lorempixel.com/1400/700/","time_read":15,"author":"5fdc8413c399571d6c5b9d34","tags":["5fdc3b553f4b1933e07df404","5fdc3b553f4b1933e07df433"],"categories":["5fdc3ae4c58d1e3588879c9f"],"cover":"https://picsum.photos/1400/700"},{"_id":"5fdc84bb8d7ec73efc36948f","id":1471,"author_id":11,"slug":67,"title":"Quia ea perferendis deserunt quia consectetur.","description":"Et alias quos voluptas ab nihil unde nobis incidunt. Eligendi ut eveniet et odio asperiores nihil accusantium. Officiis amet qui dolor et rerum voluptas cumque. Consequatur praesentium impedit illum consequatur.","content":"A aut in voluptate eius et autem similique cumque. Repellat harum voluptatem rem laboriosam commodi. Numquam est sed tenetur aut eum autem.","published_at":["__date__",146077200000],"image":"http://lorempixel.com/1400/700/","time_read":15,"author":"5fdc8413c399571d6c5b9d40","tags":["5fdc3b553f4b1933e07df3ef","5fdc3b553f4b1933e07df3dc"],"categories":["5fdc3ae4c58d1e3588879ca1"],"cover":"https://picsum.photos/1400/700"},{"_id":"5fdc84bb8d7ec73efc369490","id":1473,"author_id":13,"slug":8459,"title":"Enim sunt quia deleniti.","description":"Et voluptatum et voluptate qui blanditiis architecto voluptatum. Nihil delectus et totam magni illum illum in ducimus. Ad laborum qui quidem. Consequuntur ipsum rerum sapiente.","content":"Voluptatem ullam cum aut autem ipsum hic optio. Excepturi maiores et debitis qui. Suscipit cumque sed ex repellendus veniam totam.","published_at":["__date__",596998800000],"image":"http://lorempixel.com/1400/700/","time_read":14,"author":"5fdc8413c399571d6c5b9d39","tags":["5fdc3b553f4b1933e07df3da","5fdc3b553f4b1933e07df3ea"],"categories":["5fdc3ae4c58d1e3588879c98"],"cover":"https://picsum.photos/1400/700"}],"paginate":{"currentPage":10,"totalPage":138,"count":2063,"perPage":15,"nextPage":11,"previousPage":9}}